<?xml version="1.0" encoding="iso-8859-1"?>
<!-- Generator: Adobe Illustrator 18.0.0, SVG Export Plug-In . SVG Version: 6.00 Build 0)  -->
<!DOCTYPE svg PUBLIC "-//W3C//DTD SVG 1.1//EN" "http://www.w3.org/Graphics/SVG/1.1/DTD/svg11.dtd">
<svg version="1.1" id="Capa_1" xmlns="http://www.w3.org/2000/svg" xmlns:xlink="http://www.w3.org/1999/xlink" x="0px" y="0px"
	 viewBox="0 0 460.122 460.122" style="enable-background:new 0 0 460.122 460.122;" xml:space="preserve">
<g id="XMLID_454_">
	<path id="XMLID_469_" d="M442.526,311.045l-64.601-3.852c-1.774-3.049-37.152-63.852-40.777-70.083
		c-3.821-6.567-9.327-9.29-18.121-9.19c-11.449,0.916-25.518,2.783-41.881,5.043c0.284,3.608-0.136,7.315-1.365,10.917
		l-25.201,73.838c-3.155,9.243-10.907,15.948-20.178,17.953l45.355-2.937l17.74-59.423l-4.672,78.435
		c-0.001,0.022-0.001,0.043-0.002,0.064c-0.341,6.107,2.338,12.159,7.415,15.987l59.685,44.997
		c7.878,5.94,18.931,4.704,25.333-2.615c7.216-8.254,5.814-20.762-2.808-27.262l-51.675-38.959l4.23-71.029l8.352,42.133
		l11.272,19.617v0c3.184,5.469,8.912,8.9,15.058,9.267c8.099,0.483,67.174,4.005,74.614,4.449
		c10.403,0.619,19.179-7.339,19.789-17.562C460.701,320.576,452.887,311.663,442.526,311.045z"/>
	<path id="XMLID_478_" d="M222.582,336.216c-2.299-0.172-4.597-0.613-6.854-1.383c-14.327-4.89-22.004-20.524-17.115-34.851
		l15.221-44.596l-18.801-0.056c-8.995,0-17.473-2.404-24.085-7.783c-6.55-2.117-20.435,0-24.536,12.493l-41.438,105.451H20.405
		C9.136,365.491,0,374.627,0,385.897c0,11.27,9.136,20.405,20.405,20.405h98.474c8.389,0,15.923-5.134,18.992-12.942l20.845-53.046
		c20.457-1.325,16.238-1.051,21.648-1.402l9.112,26.579h-23.559l-13.238,33.687c-1.002,2.549-2.267,4.928-3.748,7.124h69.112
		c6.59,0,12.774-3.183,16.604-8.545c3.83-5.361,4.835-12.243,2.698-18.478L222.582,336.216z"/>
	<path id="XMLID_479_" d="M406.308,290.481c22.414-1.506,39.363-20.897,37.857-43.311s-20.897-39.363-43.311-37.857
		c-22.414,1.506-39.363,20.897-37.857,43.311C364.501,275.001,383.898,291.987,406.308,290.481z"/>
	<circle id="XMLID_481_" cx="206.888" cy="85.875" r="28.054"/>
	<path id="XMLID_482_" d="M141.359,128.673l25.091,17.081c-0.003,0.091-0.017,0.178-0.019,0.269
		c-0.149,7.524-1.122,56.845-1.273,64.482c-0.15,7.606,2.313,14.651,6.554,20.294c5.841,7.771,15.06,12.879,25.533,13.086
		c5.501,0.109,2.525,0.05,33.184,0.655l-20.267,59.383c-2.721,7.972,1.536,16.641,9.508,19.362
		c7.978,2.722,16.642-1.541,19.362-9.508l25.201-73.838c2.575-7.544-1.093-15.798-8.417-18.943l-18.99-8.153l-33.101-10.829
		l33.227,4.47l0.134-6.808l0.906-45.892l35.579-9.232c4.12-1.069,7.432-4.13,8.821-8.153l16.582-47.997
		c2.292-6.635-1.227-13.872-7.863-16.164c-6.63-2.292-13.872,1.226-16.164,7.863l-14.357,41.557l-32.851,8.524l-42.959-2.702
		l-23.482-15.985l0.615-55.084c0.079-7.02-5.548-12.774-12.567-12.851c-0.049-0.001-0.096-0.001-0.145-0.001
		c-6.953,0-12.629,5.597-12.706,12.568l-0.692,61.898C135.754,122.28,137.84,126.277,141.359,128.673z"/>
</g>
<g>
</g>
<g>
</g>
<g>
</g>
<g>
</g>
<g>
</g>
<g>
</g>
<g>
</g>
<g>
</g>
<g>
</g>
<g>
</g>
<g>
</g>
<g>
</g>
<g>
</g>
<g>
</g>
<g>
</g>
</svg>
